LINESTRING (464.42555493062895 -34.68719087506103, 507.2889347824002 -415.8446711134499, 304.4783689809006 -439.43154431912143, 16.725835745104877 -468.820251903448)

LINESTRING (507.2889347824002 -415.8446711134499, 527.4245076291319 -678.7522581223075, 495.9349400234495 -792.114701502764)

LINESTRING (527.4245076291319 -678.7522581223075, 579.0673985024509 -783.2976225731729)

LINESTRING (304.4783689809006 -439.43154431912143, 332.18918847390114 -606.9560439813516, 527.4245076291319 -678.7522581223075)

LINESTRING (527.4245076291319 -678.7522581223075, 29.88933945935035 -687.5693370518985)

LINESTRING (527.4245076291319 -678.7522581223075, 332.18918847390114 -606.9560439813516)

LINESTRING (724.0144077766619 -21.157630863737605, 835.0201378468935 -149.7833180879742, 1004.1717265253417 -338.3168596358278, 790.9702449618809 -604.3782126613036)

LINESTRING (-33.643749845553714 -66.96951946415064, 16.725835745104877 -468.820251903448, 329.32736752694956 -177.97524953438221)

LINESTRING (507.2889347824002 -415.8446711134499, 655.2965748760423 -350.65082964363137, 835.0201378468935 -149.7833180879742)

LINESTRING (507.2889347824002 -415.8446711134499, 329.32736752694956 -177.97524953438221)