0.10 CONN 9 27 up
0.10 CONN 10 20 up
0.10 CONN 9 14 up
0.10 CONN 14 27 up
0.10 CONN 3 9 up
0.10 CONN 3 27 up
0.10 CONN 3 21 up
0.10 CONN 8 20 up
0.10 CONN 8 10 up
0.10 CONN 1 6 up
0.10 CONN 1 7 up
0.10 CONN 1 16 up
0.10 CONN 1 21 up
0.10 CONN 8 17 up
0.10 CONN 17 20 up
0.10 CONN 10 17 up
0.10 CONN 4 24 up
0.10 CONN 0 9 up
0.10 CONN 0 27 up
0.10 CONN 0 14 up
0.10 CONN 0 3 up
0.10 CONN 0 21 up
0.10 CONN 14 26 up
0.10 CONN 0 26 up
0.10 CONN 7 18 up
0.10 CONN 6 18 up
0.10 CONN 6 7 up
0.10 CONN 16 21 up
0.10 CONN 7 16 up
0.10 CONN 8 16 up
0.10 CONN 16 20 up
0.10 CONN 10 16 up
0.10 CONN 16 17 up
0.10 CONN 5 9 up
0.10 CONN 5 27 up
0.10 CONN 0 5 up
0.10 CONN 3 5 up
0.10 CONN 2 18 up
0.10 CONN 2 7 up
0.10 CONN 2 6 up
0.10 CONN 8 19 up
0.10 CONN 16 19 up
0.10 CONN 19 20 up
0.10 CONN 10 19 up
0.10 CONN 17 19 up
0.10 CONN 9 15 up
0.10 CONN 15 27 up
0.10 CONN 14 15 up
0.10 CONN 0 15 up
0.10 CONN 3 15 up
0.10 CONN 5 15 up
0.10 CONN 8 13 up
0.10 CONN 13 16 up
0.10 CONN 13 20 up
0.10 CONN 10 13 up
0.10 CONN 13 19 up
0.10 CONN 13 17 up
0.10 CONN 11 12 up
0.10 CONN 0 22 up
0.10 CONN 3 22 up
0.10 CONN 21 22 up
0.10 CONN 16 22 up
0.10 CONN 20 22 up
0.10 CONN 10 22 up
0.10 CONN 9 23 up
0.10 CONN 0 23 up
0.10 CONN 3 23 up
0.10 CONN 5 23 up
0.10 CONN 21 23 up
0.10 CONN 22 23 up
0.10 CONN 8 25 up
0.10 CONN 20 25 up
0.10 CONN 10 25 up
0.10 CONN 19 25 up
0.10 CONN 17 25 up
0.10 CONN 13 25 up
8.50 CONN 10 17 down
10.80 CONN 23 27 up
11.90 CONN 7 17 up
20.70 CONN 17 20 down
23.80 CONN 17 25 down
23.90 CONN 6 17 up
27.60 CONN 14 15 down
28.70 CONN 7 16 down
41.20 CONN 13 16 down
55.80 CONN 16 19 down
58.20 CONN 1 21 down
63.20 CONN 1 22 up
63.90 CONN 9 21 up
64.70 CONN 12 24 up
66.40 CONN 6 17 down
66.60 CONN 17 25 up
71.70 CONN 16 17 down
72.60 CONN 1 22 down
81.30 CONN 8 16 down
83.70 CONN 17 20 up
85.00 CONN 4 26 up
88.80 CONN 15 23 up
90.00 CONN 7 17 down
94.50 CONN 4 26 down
97.60 CONN 2 7 down
99.30 CONN 1 18 up
100.50 CONN 7 11 up
105.50 CONN 0 26 down
106.00 CONN 16 23 up
119.30 CONN 14 23 up
120.00 CONN 10 13 down
120.30 CONN 0 26 up
125.70 CONN 10 21 up
128.90 CONN 9 21 down
130.10 CONN 5 21 up
137.20 CONN 14 21 up
