0.10 CONN 11 12 up
0.10 CONN 11 29 up
0.10 CONN 11 33 up
0.10 CONN 11 36 up
0.10 CONN 11 43 up
0.10 CONN 11 45 up
0.10 CONN 11 46 up
0.10 CONN 11 47 up
0.10 CONN 11 48 up
0.10 CONN 11 50 up
0.10 CONN 11 52 up
0.10 CONN 11 53 up
0.10 CONN 11 55 up
0.10 CONN 11 59 up
0.10 CONN 11 61 up
0.10 CONN 11 62 up
0.10 CONN 11 66 up
0.10 CONN 4 53 up
0.10 CONN 12 53 up
0.10 CONN 24 53 up
0.10 CONN 28 53 up
0.10 CONN 29 53 up
0.10 CONN 36 53 up
0.10 CONN 37 53 up
0.10 CONN 50 53 up
0.10 CONN 52 53 up
0.10 CONN 53 55 up
0.10 CONN 53 59 up
0.10 CONN 53 60 up
0.10 CONN 0 51 up
0.10 CONN 3 51 up
0.10 CONN 5 51 up
0.10 CONN 9 51 up
0.10 CONN 14 51 up
0.10 CONN 15 51 up
0.10 CONN 21 51 up
0.10 CONN 23 51 up
0.10 CONN 26 51 up
0.10 CONN 27 51 up
0.10 CONN 28 51 up
0.10 CONN 30 51 up
0.10 CONN 33 51 up
0.10 CONN 34 51 up
0.10 CONN 38 51 up
0.10 CONN 39 51 up
0.10 CONN 51 54 up
0.10 CONN 51 57 up
0.10 CONN 51 58 up
0.10 CONN 51 63 up
0.10 CONN 51 65 up
0.10 CONN 51 68 up
0.10 CONN 1 36 up
0.10 CONN 4 36 up
0.10 CONN 12 36 up
0.10 CONN 24 36 up
0.10 CONN 26 36 up
0.10 CONN 28 36 up
0.10 CONN 29 36 up
0.10 CONN 33 36 up
0.10 CONN 36 37 up
0.10 CONN 36 41 up
0.10 CONN 36 43 up
0.10 CONN 36 45 up
0.10 CONN 36 46 up
0.10 CONN 36 47 up
0.10 CONN 36 48 up
0.10 CONN 36 50 up
0.10 CONN 36 52 up
0.10 CONN 36 55 up
0.10 CONN 36 57 up
0.10 CONN 36 59 up
0.10 CONN 36 60 up
0.10 CONN 36 61 up
0.10 CONN 36 62 up
0.10 CONN 36 63 up
0.10 CONN 36 66 up
0.10 CONN 1 6 up
0.10 CONN 2 6 up
0.10 CONN 6 7 up
0.10 CONN 6 16 up
0.10 CONN 6 18 up
0.10 CONN 6 31 up
0.10 CONN 6 32 up
0.10 CONN 6 35 up
0.10 CONN 6 40 up
0.10 CONN 6 41 up
0.10 CONN 6 42 up
0.10 CONN 6 43 up
0.10 CONN 6 45 up
0.10 CONN 6 46 up
0.10 CONN 6 47 up
0.10 CONN 6 48 up
0.10 CONN 6 49 up
0.10 CONN 6 56 up
0.10 CONN 6 61 up
0.10 CONN 6 62 up
0.10 CONN 6 64 up
0.10 CONN 6 66 up
0.10 CONN 6 67 up
0.10 CONN 6 69 up
0.10 CONN 4 12 up
0.10 CONN 12 24 up
0.10 CONN 12 28 up
0.10 CONN 12 29 up
0.10 CONN 12 37 up
0.10 CONN 12 43 up
0.10 CONN 12 46 up
0.10 CONN 12 47 up
0.10 CONN 12 48 up
0.10 CONN 12 50 up
0.10 CONN 12 52 up
0.10 CONN 12 55 up
0.10 CONN 12 59 up
0.10 CONN 12 60 up
0.10 CONN 12 61 up
0.10 CONN 12 62 up
0.10 CONN 13 69 up
0.10 CONN 4 29 up
0.10 CONN 24 29 up
0.10 CONN 29 37 up
0.10 CONN 29 43 up
0.10 CONN 29 47 up
0.10 CONN 29 48 up
0.10 CONN 29 50 up
0.10 CONN 29 52 up
0.10 CONN 29 55 up
0.10 CONN 29 59 up
0.10 CONN 29 60 up
0.10 CONN 29 61 up
0.10 CONN 27 68 up
0.10 CONN 5 68 up
0.10 CONN 5 27 up
0.10 CONN 1 7 up
0.10 CONN 1 8 up
0.10 CONN 1 16 up
0.10 CONN 1 18 up
0.10 CONN 1 21 up
0.10 CONN 1 26 up
0.10 CONN 1 31 up
0.10 CONN 1 32 up
0.10 CONN 1 33 up
0.10 CONN 1 34 up
0.10 CONN 1 35 up
0.10 CONN 1 39 up
0.10 CONN 1 40 up
0.10 CONN 1 41 up
0.10 CONN 1 42 up
0.10 CONN 1 44 up
0.10 CONN 1 45 up
0.10 CONN 1 47 up
0.10 CONN 1 49 up
0.10 CONN 1 57 up
0.10 CONN 1 62 up
0.10 CONN 1 64 up
0.10 CONN 1 65 up
0.10 CONN 1 66 up
0.10 CONN 1 22 up
0.10 CONN 1 69 up
0.10 CONN 0 54 up
0.10 CONN 4 54 up
0.10 CONN 9 54 up
0.10 CONN 14 54 up
0.10 CONN 15 54 up
0.10 CONN 26 54 up
0.10 CONN 28 54 up
0.10 CONN 33 54 up
0.10 CONN 34 54 up
0.10 CONN 37 54 up
0.10 CONN 39 54 up
0.10 CONN 54 57 up
0.10 CONN 54 60 up
0.10 CONN 54 63 up
0.10 CONN 54 65 up
0.10 CONN 54 68 up
0.10 CONN 27 54 up
0.10 CONN 18 67 up
0.10 CONN 18 69 up
0.10 CONN 0 32 up
0.10 CONN 3 32 up
0.10 CONN 7 32 up
0.10 CONN 8 32 up
0.10 CONN 14 32 up
0.10 CONN 16 32 up
0.10 CONN 20 32 up
0.10 CONN 21 32 up
0.10 CONN 23 32 up
0.10 CONN 26 32 up
0.10 CONN 30 32 up
0.10 CONN 32 33 up
0.10 CONN 32 34 up
0.10 CONN 32 35 up
0.10 CONN 32 38 up
0.10 CONN 32 39 up
0.10 CONN 32 40 up
0.10 CONN 32 41 up
0.10 CONN 32 44 up
0.10 CONN 32 47 up
0.10 CONN 32 57 up
0.10 CONN 32 62 up
0.10 CONN 32 64 up
0.10 CONN 32 65 up
0.10 CONN 22 32 up
0.10 CONN 0 33 up
0.10 CONN 7 33 up
0.10 CONN 14 33 up
0.10 CONN 21 33 up
0.10 CONN 26 33 up
0.10 CONN 28 33 up
0.10 CONN 33 34 up
0.10 CONN 33 38 up
0.10 CONN 33 39 up
0.10 CONN 33 41 up
0.10 CONN 33 47 up
0.10 CONN 33 50 up
0.10 CONN 33 52 up
0.10 CONN 33 57 up
0.10 CONN 33 60 up
0.10 CONN 33 62 up
0.10 CONN 33 63 up
0.10 CONN 33 65 up
0.10 CONN 22 33 up
0.10 CONN 4 28 up
0.10 CONN 14 28 up
0.10 CONN 24 28 up
0.10 CONN 26 28 up
0.10 CONN 28 37 up
0.10 CONN 28 50 up
0.10 CONN 28 52 up
0.10 CONN 28 55 up
0.10 CONN 28 57 up
0.10 CONN 28 59 up
0.10 CONN 28 60 up
0.10 CONN 28 63 up
0.10 CONN 0 3 up
0.10 CONN 0 9 up
0.10 CONN 0 14 up
0.10 CONN 0 15 up
0.10 CONN 0 21 up
0.10 CONN 0 23 up
0.10 CONN 0 26 up
0.10 CONN 0 30 up
0.10 CONN 0 34 up
0.10 CONN 0 38 up
0.10 CONN 0 39 up
0.10 CONN 0 41 up
0.10 CONN 0 57 up
0.10 CONN 0 58 up
0.10 CONN 0 63 up
0.10 CONN 0 65 up
0.10 CONN 0 68 up
0.10 CONN 0 27 up
0.10 CONN 0 5 up
0.10 CONN 0 22 up
0.10 CONN 38 68 up
0.10 CONN 27 38 up
0.10 CONN 5 38 up
0.10 CONN 22 38 up
0.10 CONN 9 68 up
0.10 CONN 9 27 up
0.10 CONN 5 9 up
0.10 CONN 9 38 up
0.10 CONN 9 22 up
0.10 CONN 7 47 up
0.10 CONN 26 47 up
0.10 CONN 39 47 up
0.10 CONN 41 47 up
0.10 CONN 43 47 up
0.10 CONN 45 47 up
0.10 CONN 46 47 up
0.10 CONN 47 48 up
0.10 CONN 47 50 up
0.10 CONN 47 52 up
0.10 CONN 47 57 up
0.10 CONN 47 59 up
0.10 CONN 47 61 up
0.10 CONN 47 62 up
0.10 CONN 47 64 up
0.10 CONN 47 65 up
0.10 CONN 47 66 up
0.10 CONN 18 47 up
0.10 CONN 7 16 up
0.10 CONN 8 16 up
0.10 CONN 10 16 up
0.10 CONN 16 17 up
0.10 CONN 16 19 up
0.10 CONN 16 20 up
0.10 CONN 16 21 up
0.10 CONN 16 25 up
0.10 CONN 16 31 up
0.10 CONN 16 34 up
0.10 CONN 16 35 up
0.10 CONN 16 39 up
0.10 CONN 16 40 up
0.10 CONN 16 41 up
0.10 CONN 16 42 up
0.10 CONN 16 44 up
0.10 CONN 16 49 up
0.10 CONN 16 64 up
0.10 CONN 16 65 up
0.10 CONN 16 22 up
0.10 CONN 16 69 up
0.10 CONN 13 16 up
0.10 CONN 64 67 up
0.10 CONN 18 64 up
0.10 CONN 64 69 up
0.10 CONN 2 67 up
0.10 CONN 2 18 up
0.10 CONN 2 69 up
0.10 CONN 2 64 up
0.10 CONN 42 67 up
0.10 CONN 18 42 up
0.10 CONN 2 42 up
0.10 CONN 42 69 up
0.10 CONN 42 64 up
0.10 CONN 13 42 up
0.10 CONN 13 19 up
0.10 CONN 20 22 up
0.10 CONN 13 20 up
0.10 CONN 19 20 up
0.10 CONN 14 26 up
0.10 CONN 21 26 up
0.10 CONN 26 34 up
0.10 CONN 26 39 up
0.10 CONN 26 41 up
0.10 CONN 26 50 up
0.10 CONN 26 52 up
0.10 CONN 26 57 up
0.10 CONN 26 60 up
0.10 CONN 26 63 up
0.10 CONN 26 65 up
0.10 CONN 26 38 up
0.10 CONN 4 24 up
0.10 CONN 24 37 up
0.10 CONN 24 50 up
0.10 CONN 24 52 up
0.10 CONN 24 55 up
0.10 CONN 24 59 up
0.10 CONN 24 60 up
0.10 CONN 4 63 up
0.10 CONN 14 63 up
0.10 CONN 15 63 up
0.10 CONN 34 63 up
0.10 CONN 37 63 up
0.10 CONN 39 63 up
0.10 CONN 50 63 up
0.10 CONN 52 63 up
0.10 CONN 57 63 up
0.10 CONN 60 63 up
0.10 CONN 27 63 up
0.10 CONN 15 68 up
0.10 CONN 15 27 up
0.10 CONN 5 15 up
0.10 CONN 15 38 up
0.10 CONN 9 15 up
0.10 CONN 4 59 up
0.10 CONN 37 59 up
0.10 CONN 50 59 up
0.10 CONN 52 59 up
0.10 CONN 55 59 up
0.10 CONN 59 60 up
0.10 CONN 59 61 up
0.10 CONN 3 14 up
0.10 CONN 14 21 up
0.10 CONN 14 23 up
0.10 CONN 14 30 up
0.10 CONN 14 34 up
0.10 CONN 14 39 up
0.10 CONN 14 41 up
0.10 CONN 14 57 up
0.10 CONN 14 58 up
0.10 CONN 14 60 up
0.10 CONN 14 65 up
0.10 CONN 14 68 up
0.10 CONN 14 27 up
0.10 CONN 5 14 up
0.10 CONN 14 38 up
0.10 CONN 9 14 up
0.10 CONN 14 15 up
0.10 CONN 7 41 up
0.10 CONN 21 41 up
0.10 CONN 31 41 up
0.10 CONN 34 41 up
0.10 CONN 35 41 up
0.10 CONN 39 41 up
0.10 CONN 40 41 up
0.10 CONN 41 44 up
0.10 CONN 41 45 up
0.10 CONN 41 57 up
0.10 CONN 41 62 up
0.10 CONN 41 65 up
0.10 CONN 41 66 up
0.10 CONN 38 41 up
0.10 CONN 22 41 up
0.10 CONN 18 41 up
0.10 CONN 41 64 up
0.10 CONN 7 46 up
0.10 CONN 43 46 up
0.10 CONN 45 46 up
0.10 CONN 46 48 up
0.10 CONN 46 50 up
0.10 CONN 46 56 up
0.10 CONN 46 61 up
0.10 CONN 46 62 up
0.10 CONN 46 66 up
0.10 CONN 46 67 up
0.10 CONN 18 46 up
0.10 CONN 2 46 up
0.10 CONN 46 64 up
0.10 CONN 7 45 up
0.10 CONN 31 45 up
0.10 CONN 35 45 up
0.10 CONN 40 45 up
0.10 CONN 43 45 up
0.10 CONN 45 48 up
0.10 CONN 45 49 up
0.10 CONN 45 56 up
0.10 CONN 45 61 up
0.10 CONN 45 62 up
0.10 CONN 45 66 up
0.10 CONN 45 67 up
0.10 CONN 18 45 up
0.10 CONN 2 45 up
0.10 CONN 45 69 up
0.10 CONN 45 64 up
0.10 CONN 42 45 up
0.10 CONN 20 25 up
0.10 CONN 25 69 up
0.10 CONN 13 25 up
0.10 CONN 19 25 up
0.10 CONN 7 66 up
0.10 CONN 31 66 up
0.10 CONN 43 66 up
0.10 CONN 48 66 up
0.10 CONN 49 66 up
0.10 CONN 56 66 up
0.10 CONN 61 66 up
0.10 CONN 62 66 up
0.10 CONN 66 67 up
0.10 CONN 18 66 up
0.10 CONN 2 66 up
0.10 CONN 66 69 up
0.10 CONN 64 66 up
0.10 CONN 42 66 up
0.10 CONN 30 68 up
0.10 CONN 27 30 up
0.10 CONN 5 30 up
0.10 CONN 30 38 up
0.10 CONN 9 30 up
0.10 CONN 15 30 up
0.10 CONN 22 30 up
0.10 CONN 3 68 up
0.10 CONN 3 27 up
0.10 CONN 3 5 up
0.10 CONN 3 38 up
0.10 CONN 3 9 up
0.10 CONN 3 15 up
0.10 CONN 3 30 up
0.10 CONN 3 22 up
0.10 CONN 58 68 up
0.10 CONN 27 58 up
0.10 CONN 5 58 up
0.10 CONN 38 58 up
0.10 CONN 9 58 up
0.10 CONN 15 58 up
0.10 CONN 30 58 up
0.10 CONN 3 58 up
0.10 CONN 22 58 up
0.10 CONN 10 22 up
0.10 CONN 10 20 up
0.10 CONN 10 13 up
0.10 CONN 10 19 up
0.10 CONN 10 25 up
0.10 CONN 8 22 up
0.10 CONN 8 20 up
0.10 CONN 8 10 up
0.10 CONN 8 69 up
0.10 CONN 8 64 up
0.10 CONN 8 42 up
0.10 CONN 8 13 up
0.10 CONN 8 19 up
0.10 CONN 8 25 up
0.10 CONN 4 52 up
0.10 CONN 37 52 up
0.10 CONN 48 52 up
0.10 CONN 50 52 up
0.10 CONN 52 55 up
0.10 CONN 52 60 up
0.10 CONN 52 61 up
0.10 CONN 52 62 up
0.10 CONN 22 44 up
0.10 CONN 20 44 up
0.10 CONN 10 44 up
0.10 CONN 44 69 up
0.10 CONN 44 64 up
0.10 CONN 42 44 up
0.10 CONN 13 44 up
0.10 CONN 19 44 up
0.10 CONN 25 44 up
0.10 CONN 8 44 up
0.10 CONN 20 31 up
0.10 CONN 31 44 up
0.10 CONN 18 31 up
0.10 CONN 2 31 up
0.10 CONN 31 69 up
0.10 CONN 31 64 up
0.10 CONN 31 42 up
0.10 CONN 13 31 up
0.10 CONN 19 31 up
0.10 CONN 25 31 up
0.10 CONN 8 31 up
0.10 CONN 43 48 up
0.10 CONN 43 61 up
0.10 CONN 43 62 up
0.10 CONN 43 67 up
0.10 CONN 23 68 up
0.10 CONN 23 27 up
0.10 CONN 5 23 up
0.10 CONN 23 38 up
0.10 CONN 9 23 up
0.10 CONN 15 23 up
0.10 CONN 23 30 up
0.10 CONN 3 23 up
0.10 CONN 23 58 up
0.10 CONN 22 23 up
0.10 CONN 20 23 up
0.10 CONN 10 23 up
0.10 CONN 4 60 up
0.10 CONN 37 60 up
0.10 CONN 50 60 up
0.10 CONN 55 60 up
0.10 CONN 57 60 up
0.10 CONN 44 49 up
0.10 CONN 18 49 up
0.10 CONN 2 49 up
0.10 CONN 49 69 up
0.10 CONN 49 64 up
0.10 CONN 42 49 up
0.10 CONN 31 49 up
0.10 CONN 13 49 up
0.10 CONN 25 49 up
0.10 CONN 8 49 up
0.10 CONN 4 37 up
0.10 CONN 4 50 up
0.10 CONN 4 55 up
0.10 CONN 21 34 up
0.10 CONN 34 39 up
0.10 CONN 34 57 up
0.10 CONN 34 65 up
0.10 CONN 34 68 up
0.10 CONN 27 34 up
0.10 CONN 5 34 up
0.10 CONN 34 38 up
0.10 CONN 9 34 up
0.10 CONN 15 34 up
0.10 CONN 30 34 up
0.10 CONN 3 34 up
0.10 CONN 34 58 up
0.10 CONN 23 34 up
0.10 CONN 22 34 up
0.10 CONN 7 39 up
0.10 CONN 21 39 up
0.10 CONN 35 39 up
0.10 CONN 39 40 up
0.10 CONN 39 57 up
0.10 CONN 39 65 up
0.10 CONN 27 39 up
0.10 CONN 38 39 up
0.10 CONN 9 39 up
0.10 CONN 30 39 up
0.10 CONN 3 39 up
0.10 CONN 39 58 up
0.10 CONN 23 39 up
0.10 CONN 22 39 up
0.10 CONN 39 44 up
0.10 CONN 7 61 up
0.10 CONN 48 61 up
0.10 CONN 50 61 up
0.10 CONN 61 62 up
0.10 CONN 61 67 up
0.10 CONN 18 61 up
0.10 CONN 61 64 up
0.10 CONN 7 62 up
0.10 CONN 40 62 up
0.10 CONN 48 62 up
0.10 CONN 50 62 up
0.10 CONN 56 62 up
0.10 CONN 62 67 up
0.10 CONN 18 62 up
0.10 CONN 2 62 up
0.10 CONN 62 64 up
0.10 CONN 37 50 up
0.10 CONN 48 50 up
0.10 CONN 50 55 up
0.10 CONN 50 57 up
0.10 CONN 7 65 up
0.10 CONN 21 65 up
0.10 CONN 35 65 up
0.10 CONN 40 65 up
0.10 CONN 57 65 up
0.10 CONN 38 65 up
0.10 CONN 9 65 up
0.10 CONN 30 65 up
0.10 CONN 3 65 up
0.10 CONN 58 65 up
0.10 CONN 23 65 up
0.10 CONN 22 65 up
0.10 CONN 20 65 up
0.10 CONN 44 65 up
0.10 CONN 21 27 up
0.10 CONN 5 21 up
0.10 CONN 21 38 up
0.10 CONN 9 21 up
0.10 CONN 21 30 up
0.10 CONN 3 21 up
0.10 CONN 21 58 up
0.10 CONN 21 23 up
0.10 CONN 21 22 up
0.10 CONN 20 21 up
0.10 CONN 10 21 up
0.10 CONN 21 44 up
0.10 CONN 8 21 up
0.10 CONN 7 17 up
0.10 CONN 7 35 up
0.10 CONN 7 40 up
0.10 CONN 7 48 up
0.10 CONN 7 56 up
0.10 CONN 7 44 up
0.10 CONN 7 67 up
0.10 CONN 7 18 up
0.10 CONN 2 7 up
0.10 CONN 7 69 up
0.10 CONN 7 64 up
0.10 CONN 7 42 up
0.10 CONN 7 31 up
0.10 CONN 7 49 up
0.10 CONN 7 8 up
0.10 CONN 57 68 up
0.10 CONN 27 57 up
0.10 CONN 5 57 up
0.10 CONN 38 57 up
0.10 CONN 9 57 up
0.10 CONN 15 57 up
0.10 CONN 30 57 up
0.10 CONN 3 57 up
0.10 CONN 57 58 up
0.10 CONN 23 57 up
0.10 CONN 22 57 up
0.10 CONN 21 57 up
0.10 CONN 17 35 up
0.10 CONN 35 40 up
0.10 CONN 22 35 up
0.10 CONN 20 35 up
0.10 CONN 10 35 up
0.10 CONN 35 44 up
0.10 CONN 21 35 up
0.10 CONN 18 35 up
0.10 CONN 2 35 up
0.10 CONN 35 69 up
0.10 CONN 35 64 up
0.10 CONN 35 42 up
0.10 CONN 31 35 up
0.10 CONN 35 49 up
0.10 CONN 13 35 up
0.10 CONN 19 35 up
0.10 CONN 25 35 up
0.10 CONN 8 35 up
0.10 CONN 48 56 up
0.10 CONN 48 67 up
0.10 CONN 18 48 up
0.10 CONN 48 64 up
0.10 CONN 17 20 up
0.10 CONN 10 17 up
0.10 CONN 17 44 up
0.10 CONN 17 18 up
0.10 CONN 2 17 up
0.10 CONN 17 69 up
0.10 CONN 17 64 up
0.10 CONN 17 42 up
0.10 CONN 17 31 up
0.10 CONN 17 49 up
0.10 CONN 13 17 up
0.10 CONN 17 19 up
0.10 CONN 17 25 up
0.10 CONN 8 17 up
0.10 CONN 56 67 up
0.10 CONN 18 56 up
0.10 CONN 2 56 up
0.10 CONN 56 69 up
0.10 CONN 56 64 up
0.10 CONN 42 56 up
0.10 CONN 31 56 up
0.10 CONN 49 56 up
0.10 CONN 37 55 up
0.10 CONN 22 40 up
0.10 CONN 20 40 up
0.10 CONN 10 40 up
0.10 CONN 40 44 up
0.10 CONN 21 40 up
0.10 CONN 18 40 up
0.10 CONN 2 40 up
0.10 CONN 40 69 up
0.10 CONN 40 64 up
0.10 CONN 40 42 up
0.10 CONN 31 40 up
0.10 CONN 40 49 up
0.10 CONN 17 40 up
0.10 CONN 13 40 up
0.10 CONN 19 40 up
0.10 CONN 25 40 up
0.10 CONN 8 40 up
1.80 CONN 26 27 up
3.40 CONN 16 34 down
5.50 CONN 6 11 up
5.90 CONN 28 34 up
6.20 CONN 11 53 down
7.00 CONN 62 65 up
7.30 CONN 31 62 up
7.50 CONN 35 62 up
8.40 CONN 31 32 up
9.30 CONN 42 62 up
9.40 CONN 10 31 up
10.50 CONN 49 62 up
11.60 CONN 27 65 up
12.50 CONN 62 69 up
12.50 CONN 1 11 up
12.60 CONN 23 41 up
13.00 CONN 12 62 down
14.90 CONN 11 26 up
15.20 CONN 16 23 up
18.20 CONN 9 54 down
18.50 CONN 11 41 up
18.60 CONN 7 11 up
18.90 CONN 31 65 up
20.50 CONN 23 33 up
22.30 CONN 19 49 up
22.90 CONN 39 47 down
23.00 CONN 19 22 up
24.10 CONN 47 57 down
25.20 CONN 11 64 up
25.40 CONN 40 66 up
26.00 CONN 16 18 up
27.20 CONN 14 22 up
27.30 CONN 47 67 up
28.20 CONN 21 68 up
28.30 CONN 11 18 up
28.40 CONN 16 23 down
29.00 CONN 23 26 up
31.60 CONN 50 54 up
33.00 CONN 46 50 down
38.50 CONN 51 65 down
39.10 CONN 41 50 up
39.70 CONN 1 14 up
40.10 CONN 11 26 down
40.10 CONN 1 14 down
40.60 CONN 48 50 down
40.80 CONN 26 30 up
41.10 CONN 25 69 down
41.50 CONN 27 65 down
41.80 CONN 20 65 down
43.00 CONN 14 50 up
43.00 CONN 16 18 down
43.80 CONN 39 68 up
44.90 CONN 63 65 up
45.20 CONN 34 50 up
45.40 CONN 1 17 up
45.90 CONN 9 65 down
47.80 CONN 6 65 up
49.10 CONN 6 16 down
49.70 CONN 2 48 up
50.00 CONN 67 69 up
50.90 CONN 29 60 down
52.20 CONN 10 23 down
52.50 CONN 16 64 down
54.60 CONN 20 23 down
55.40 CONN 1 36 down
57.00 CONN 8 21 down
58.80 CONN 1 23 up
59.10 CONN 30 33 up
59.40 CONN 27 33 up
59.60 CONN 23 54 up
60.00 CONN 1 20 up
61.20 CONN 10 32 up
62.40 CONN 50 62 down
62.70 CONN 24 63 up
62.80 CONN 35 66 up
63.20 CONN 33 60 down
63.70 CONN 52 62 down
63.70 CONN 32 58 up
64.20 CONN 1 11 down
64.40 CONN 1 2 up
64.80 CONN 3 33 up
65.50 CONN 7 33 down
66.10 CONN 1 10 up
66.30 CONN 11 18 down
66.50 CONN 1 38 up
66.50 CONN 4 54 down
66.80 CONN 6 8 up
67.00 CONN 19 49 down
67.00 CONN 41 52 up
67.20 CONN 36 57 down
67.50 CONN 1 26 down
67.60 CONN 11 33 down
67.60 CONN 33 58 up
67.80 CONN 1 57 down
67.80 CONN 16 41 down
68.70 CONN 41 61 up
68.90 CONN 25 49 down
69.10 CONN 29 46 up
69.20 CONN 36 66 down
69.40 CONN 8 18 up
69.40 CONN 11 64 down
69.80 CONN 9 33 up
71.40 CONN 33 62 down
71.90 CONN 33 52 down
72.30 CONN 11 37 up
72.60 CONN 41 48 up
73.00 CONN 3 10 up
73.40 CONN 3 20 up
74.10 CONN 31 65 down
74.80 CONN 33 68 up
75.00 CONN 16 64 up
75.70 CONN 5 39 up
75.80 CONN 7 11 down
76.10 CONN 10 31 down
76.20 CONN 34 50 down
76.30 CONN 18 43 up
76.70 CONN 4 63 down
77.00 CONN 14 50 down
77.70 CONN 25 31 down
78.00 CONN 23 63 up
78.00 CONN 6 44 up
78.20 CONN 38 44 up
81.00 CONN 12 43 down
81.20 CONN 20 31 down
81.60 CONN 20 31 up
81.70 CONN 61 64 down
82.10 CONN 43 56 up
82.30 CONN 20 38 up
83.40 CONN 20 39 up
83.50 CONN 19 31 down
83.70 CONN 35 56 up
83.80 CONN 47 67 down
84.60 CONN 13 64 up
85.00 CONN 44 62 up
85.40 CONN 15 33 up
85.50 CONN 64 65 up
86.10 CONN 18 44 up
87.00 CONN 7 67 down
87.40 CONN 6 17 up
88.10 CONN 4 63 up
88.50 CONN 38 44 down
88.50 CONN 15 26 up
88.90 CONN 24 54 up
88.90 CONN 20 65 up
89.10 CONN 42 67 down
89.20 CONN 6 11 down
89.20 CONN 3 10 down
89.20 CONN 55 63 up
89.30 CONN 11 24 up
89.80 CONN 2 43 up
89.80 CONN 11 53 up
89.80 CONN 20 49 up
89.80 CONN 15 21 up
90.40 CONN 21 35 down
90.80 CONN 36 43 down
91.10 CONN 7 39 down
91.40 CONN 26 68 up
91.50 CONN 16 69 down
91.60 CONN 1 34 down
91.80 CONN 39 63 down
92.10 CONN 15 39 up
92.20 CONN 7 43 up
92.60 CONN 15 63 down
92.60 CONN 23 63 down
93.00 CONN 12 63 up
93.40 CONN 52 54 up
93.80 CONN 42 67 up
93.80 CONN 7 67 up
94.10 CONN 63 65 down
94.60 CONN 25 49 up
94.80 CONN 53 63 up
95.10 CONN 7 36 up
96.40 CONN 7 11 up
96.40 CONN 33 52 up
96.80 CONN 54 65 down
97.10 CONN 58 65 down
97.40 CONN 8 18 down
97.90 CONN 31 65 up
97.90 CONN 18 44 down
98.50 CONN 7 16 down
98.80 CONN 10 32 down
99.10 CONN 1 2 down
100.90 CONN 48 59 up
100.90 CONN 61 64 up
101.00 CONN 41 48 down
101.30 CONN 8 65 up
101.40 CONN 25 31 up
102.20 CONN 2 48 down
103.60 CONN 18 41 down
104.70 CONN 0 63 down
104.90 CONN 33 50 down
105.50 CONN 1 13 up
106.10 CONN 20 49 down
106.30 CONN 48 64 down
107.30 CONN 25 49 down
107.50 CONN 15 63 up
108.40 CONN 42 67 down
109.00 CONN 24 54 down
109.40 CONN 50 57 down
109.60 CONN 49 67 up
110.50 CONN 4 36 down
110.80 CONN 41 50 down
111.50 CONN 36 57 up
111.60 CONN 55 63 down
113.60 CONN 36 65 up
114.50 CONN 21 35 up
114.80 CONN 36 66 up
116.20 CONN 47 57 up
117.30 CONN 17 56 up
117.40 CONN 25 42 up
118.70 CONN 55 63 up
119.00 CONN 38 44 up
119.20 CONN 38 54 up
119.60 CONN 4 36 up
119.80 CONN 43 69 up
120.60 CONN 43 64 up
120.70 CONN 10 21 down
121.20 CONN 46 59 up
121.70 CONN 29 43 down
123.30 CONN 4 11 up
124.40 CONN 43 49 up
125.40 CONN 33 52 down
126.50 CONN 40 45 down
126.80 CONN 20 30 up
127.40 CONN 14 60 down
128.70 CONN 48 52 down
130.10 CONN 6 32 down
130.60 CONN 20 38 down
130.70 CONN 41 54 up
131.20 CONN 20 42 up
132.00 CONN 41 52 down
132.20 CONN 36 54 up
132.40 CONN 24 54 up
132.40 CONN 36 66 down
132.90 CONN 17 66 up
135.90 CONN 27 28 up
135.90 CONN 22 57 down
136.70 CONN 22 41 down
136.80 CONN 5 22 up
137.00 CONN 33 62 up
137.40 CONN 3 20 down
138.00 CONN 20 30 down
138.40 CONN 12 26 up
138.50 CONN 27 32 up
139.30 CONN 1 14 up
139.50 CONN 32 58 down
140.00 CONN 40 66 down
141.20 CONN 46 49 up
141.90 CONN 27 65 up
142.20 CONN 5 22 down
142.50 CONN 36 65 down
142.50 CONN 16 49 down
142.80 CONN 11 66 down
142.80 CONN 37 54 down
143.20 CONN 45 65 up
143.60 CONN 20 64 up
144.60 CONN 21 51 down
144.80 CONN 14 47 up
145.00 CONN 6 32 up
145.20 CONN 32 45 up
145.90 CONN 14 60 up
146.50 CONN 14 36 up
147.10 CONN 33 60 up
147.30 CONN 27 32 down
148.00 CONN 1 34 up
148.30 CONN 14 36 down
149.00 CONN 7 36 down
